%YAML 1.1
%TAG !u! tag:unity3d.com,2011:
--- !u!114 &11400000
MonoBehaviour:
  m_ObjectHideFlags: 0
  m_CorrespondingSourceObject: {fileID: 0}
  m_PrefabInstance: {fileID: 0}
  m_PrefabAsset: {fileID: 0}
  m_GameObject: {fileID: 0}
  m_Enabled: 1
  m_EditorHideFlags: 0
  m_Script: {fileID: 11500000, guid: 8c7a83b4b5364cb4ebe857700a9277c7, type: 3}
  m_Name: 1
  m_EditorClassIdentifier: 
  goal: 400
  timeConstant: 1
  backdropMaterial: {fileID: 2100000, guid: 303f69d2d0e3b2b4ba553a8df125be83, type: 2}
  spawnMin: 0.25
  spawnMax: 0.33
  probabilityGreen: 1
  probabilityPink: 0
  probabilityOrange: 0
  probabilityRed: 0
  probabilityPurple: 0
  probabilityGrey: 0
  probabilityTeal: 0
  probabilityBlack: 0
  probabilityWhite: 0
