%YAML 1.1
%TAG !u! tag:unity3d.com,2011:
--- !u!114 &11400000
MonoBehaviour:
  m_ObjectHideFlags: 0
  m_CorrespondingSourceObject: {fileID: 0}
  m_PrefabInstance: {fileID: 0}
  m_PrefabAsset: {fileID: 0}
  m_GameObject: {fileID: 0}
  m_Enabled: 1
  m_EditorHideFlags: 0
  m_Script: {fileID: 11500000, guid: 8c7a83b4b5364cb4ebe857700a9277c7, type: 3}
  m_Name: 4
  m_EditorClassIdentifier: 
  goal: 400
  timeConstant: 1.2
  backdropMaterial: {fileID: 2100000, guid: ea25309a4d4a4fd4784067628f7c60b9, type: 2}
  spawnMin: 0.25
  spawnMax: 0.33
  probabilityGreen: 0.25
  probabilityPink: 0.25
  probabilityOrange: 0.25
  probabilityRed: 0.25
  probabilityPurple: 0
  probabilityGrey: 0
  probabilityTeal: 0
  probabilityBlack: 0
  probabilityWhite: 0
