%YAML 1.1
%TAG !u! tag:unity3d.com,2011:
--- !u!114 &11400000
MonoBehaviour:
  m_ObjectHideFlags: 0
  m_CorrespondingSourceObject: {fileID: 0}
  m_PrefabInstance: {fileID: 0}
  m_PrefabAsset: {fileID: 0}
  m_GameObject: {fileID: 0}
  m_Enabled: 1
  m_EditorHideFlags: 0
  m_Script: {fileID: 11500000, guid: 8c7a83b4b5364cb4ebe857700a9277c7, type: 3}
  m_Name: Classic_5
  m_EditorClassIdentifier: 
  goal: 380
  timeConstant: 1.1
  backdropMaterial: {fileID: 2100000, guid: dee28b8071056f043844aa434a664330, type: 2}
  spawnMin: 0.25
  spawnMax: 0.33
  probabilityGreen: 0.2
  probabilityPink: 0.2
  probabilityOrange: 0.2
  probabilityRed: 0.2
  probabilityPurple: 0.2
  probabilityGrey: 0
  probabilityTeal: 0
  probabilityBlack: 0
  probabilityWhite: 0
