%YAML 1.1
%TAG !u! tag:unity3d.com,2011:
--- !u!1045 &1
EditorBuildSettings:
  m_ObjectHideFlags: 0
  serializedVersion: 2
  m_Scenes:
  - enabled: 1
    path: Assets/Scenes/1_Landing/Landing.unity
    guid: d1c3109bdb54ad54c8a2b2838528e640
  - enabled: 1
    path: Assets/Scenes/2_Game/Classic.unity
    guid: ed3d2ec65bcf3aa49a0783afd6cc3fe1
  - enabled: 1
    path: Assets/Scenes/2_Game/Infinity.unity
    guid: 512694ffdd5b7fa40b08b9ae718e9f29
  - enabled: 1
    path: Assets/Scenes/2_Game/Hero.unity
    guid: 2d8756344e642f740bcb940eb885ea9d
  m_configObjects: {}
