%YAML 1.1
%TAG !u! tag:unity3d.com,2011:
--- !u!21 &2100000
Material:
  serializedVersion: 6
  m_ObjectHideFlags: 0
  m_CorrespondingSourceObject: {fileID: 0}
  m_PrefabInstance: {fileID: 0}
  m_PrefabAsset: {fileID: 0}
  m_Name: BD_Grey
  m_Shader: {fileID: -6465566751694194690, guid: 6a91f27556bcf744699d0602c86ea9a0, type: 3}
  m_ShaderKeywords: 
  m_LightmapFlags: 4
  m_EnableInstancingVariants: 0
  m_DoubleSidedGI: 0
  m_CustomRenderQueue: -1
  stringTagMap: {}
  disabledShaderPasses: []
  m_SavedProperties:
    serializedVersion: 3
    m_TexEnvs:
    - _Emission:
        m_Texture: {fileID: 2800000, guid: 48e93eef0688c4a259cb0eddcd8661f7, type: 3}
        m_Scale: {x: 1, y: 1}
        m_Offset: {x: 0, y: 0}
    - _MainTex:
        m_Texture: {fileID: 0}
        m_Scale: {x: 1, y: 1}
        m_Offset: {x: 0, y: 0}
    - _Texture2DAsset_ba844d4cf0054b5db99ef5456331ebb7_Out_0:
        m_Texture: {fileID: 2800000, guid: 67654a98751d08c49830f769131ae02c, type: 3}
        m_Scale: {x: 1, y: 1}
        m_Offset: {x: 0, y: 0}
    - unity_Lightmaps:
        m_Texture: {fileID: 0}
        m_Scale: {x: 1, y: 1}
        m_Offset: {x: 0, y: 0}
    - unity_LightmapsInd:
        m_Texture: {fileID: 0}
        m_Scale: {x: 1, y: 1}
        m_Offset: {x: 0, y: 0}
    - unity_ShadowMasks:
        m_Texture: {fileID: 0}
        m_Scale: {x: 1, y: 1}
        m_Offset: {x: 0, y: 0}
    m_Floats:
    - Vector1_ea323b4f578441eca203b94f9d4b4a80: 13.7
    - Vector1_ee7855549948438a85cbbcbd5042dbe3: 0.5
    m_Colors:
    - Color_49bb7e0b1fc441979e6a6719bd300460: {r: 0.3584906, g: 0.3584906, b: 0.3584906, a: 1}
    - Color_5be7f8bb7815409fb72b3807d8e72965: {r: 0.28235295, g: 1.4980392, b: 1.0588236, a: 1}
    - Color_644565f405c5427389deaedae7de649e: {r: 0, g: 0.76106226, b: 14.928529, a: 0}
    - Vector2_107f915bd3e4424d84e599dfdf9ab8aa: {r: -0.61, g: 1.29, b: 0, a: -0.33}
    - Vector2_4659ba2814564683b3c9e58175b0239e: {r: 1, g: 1, b: 0, a: 0}
    - Vector2_4af4498055464549aab94f184222b8ad: {r: 1.39, g: 0.03, b: -0.19, a: 0.1}
    - Vector2_5b12c9fbf96944a7ad6d381873770dd2: {r: 0, g: 1, b: 0, a: 0}
  m_BuildTextureStacks: []
